﻿ja,zh,en,ko
"-プロローグ-
はるかなる旅立ち",-序章- 遥远旅程的开始,-Prologue- A Journey Faraway,-프롤로그- 아득한 여행길
"-1章-
この世界でも、笑顔を",-第一章- 给这个世界也带来笑容,-Chapter 1- Smiles Even In This World,-1장- 이 세상에서도 미소를
"-2章-
続きから▷港町",-第二章- 继续▹港町,-Chapter 2- Continuing Onwards ▷ Harbour Town,-2장- 이어지는 ▷ 항구 마을
"-3章-
さばくぐらし？",-第三章- 沙漠孤岛？,-Chapter 3- Desert-Live?,-3장- 사막생활?
"-4章-
Ａのはざまにて",-第四章- A 峡谷,-Chapter 4- In The Valley of A,-4장- A의 골짜기에서
"-5章-
きんいろパニック",-第五章- 金色恐慌,-Chapter 5- Kiniro Panic,-5장- 금빛 패닉
"-6章-
進め！デバッグ探検隊！",-第六章- 前进！Debug 探险队,-Chapter 6- Advance! Debug Exploration Team!,-6장- 전진! 디버그 탐험대!
"-7章-
エトワリア学園情報処理部",-第七章- 艾特瓦利亚学园情报处理部,-Chapter 7- Etoilia Academy Data Processing Club,-7장- 에토와리아 학원 정보처리부
"-8章-
導かれし未来",-第八章- 被引导的未来,-Chapter 8- The Guided Future,-8장- 인도하는 미래
"-外伝-
筆頭神官の誓い",-外传- 笔头神官的誓言,-Side Story- The Grand Priest's Oath,-외전- 필두신관의 맹세
ＰＥＣＯ　-A trial version-,PECO -A trial version-,PECO -A trial version-,PECO -A trial version-
きんいろダークネス,金色黑暗,Kiniro Darkness,금빛 다크니스
からみねーしょん,辣味国度,Spicimination,카라미네이션
森の小屋のゆゆしき着ぐるみ,森林小屋的悠悠式玩偶服,Yuyushiki Costume in the Forest's Lodge,숲속 오두막의 유유시키 인형옷
野クルと鋼鉄の咆哮,野活部与钢铁的咆哮,,야클과 강철의 포효
エトワリアのサンタクロース,艾特瓦利亚的圣诞老人,Santa Claus of Etoilia,에토와리아의 산타클로스
きんいろNEW YEAR!,金色新年,Kiniro New Year!,금빛 NEW YEAR!
スティーレ 2号店オープン！,Stile 二号店开张！,Stile Second Shop Open!,스틸레 2호점 오픈!
マッシュルームベイベー,蘑菇宝贝,Mushroom Baby,머시룸 베이비
チョコレートクエスト,巧克力关卡,Chocolate Quest,초콜릿 퀘스트
鍛冶師の夢を喰らう者,锻造师的食梦者,The Eater of the Blacksmith's Dream,대장장이의 꿈을 먹는 자
風雲！ヒナ祭り,风云！女儿节,Hinamatsuri Festival,풍운! 히나마츠리
ねねっちクエスト,宁宁的关卡,Nenecchi Quest,네넷치 퀘스트
Fairies Trick,Fairies Trick,Fairies Trick,Fairies Trick
友達の友達は友達大作戦,朋友的朋友是朋友大作战,Operation: A Friend's Friend is Also a Friend,친구의 친구는 친구 대작전
野クルと北の山と初キャンプ△,野活部与北山与初次露营△,"Outclub, the Northern Mountain and the First Camp",야클과 북쪽 산과 첫 캠프△
エトワリアの歌姫,艾特瓦利亚的歌姬,Etoilia's Diva,에토와리아의 가희
リメンバー・よさこい,回忆・夜来舞,Remember Yosakoi,리멤버 요사코이
創刊！コミックエトワリア,创刊！漫画艾特瓦利亚,First Issue! Comic Etoilia,창간! 코믹 에토와리아
くるみインワンダーランド,胡桃漫游仙境,Kurumi in Wonderland,쿠루미 인 원더랜드
けいおん！　エトワリアライブ！！,轻音！艾特瓦利亚演唱会！！,K-ON! Etoilia Live!!,케이온! 에토와리아 라이브!!
水着日替わりイベント,泳装日替活动,Swimsuit Daily Event,수영복 일간 이벤트
海の家オブザイヤー,年度海之家,Beach Hut of the Year,바다의 집 오브 더 이어
海の底の玉手箱,海底的玉手箱,Treasure Chest at the bottom of the Sea,바닷속 보물 상자
謎の島と絆の試練,谜之岛与羁绊的试炼,Mysterious Island and Trial of Bonds,수수께끼의 섬과 인연의 시련
名探偵コロネット ユーの悲劇,名侦探冠：U 的悲剧,Great Detective Coronet: The Tragedy of Yuu,명탐정 코로넷: 유의 비극
宮子とねこのうた,宫子与猫之歌,Miyako and the Cats' Song,미야코와 고양이의 노래
復刻・スティーレ 2号店オープン！,复刻・Stile 二号店开张！,Re-Run: Stile Second Shop Open!,복각: 스틸레 2호점 오픈!
ヒバリとりーさんと幸福の花,云雀与里姐与幸福之花,"Hibari, Rii-san and the Flower of Happiness",히바리와 리 양과 행복의 꽃
異世界でもうさぎですか？,异世界也要来点兔子吗？,Is the Order a Rabbit in a Different World?,이세계에서도 토끼입니까?
Yell for All,Yell for All,Yell for All,Yell for All
エトワリアのブラック・クリスマス,艾特瓦利亚的黑色圣诞节,Etoilia's Black Christmas,에토와리아의 블랙 크리스마스
クリエメイト大集合！　お正月すごろく大会　予選,克利耶梅特大集合！新年双六大会 预选,Crea Mates Big Meeting! New Year Sugoroku Tournament,크리에메이트 대집합! 정월 주사위 대회: 예선
クリエメイト大集合！　お正月すごろく大会　本戦,克利耶梅特大集合！新年双六大会 实战,Crea Mates Big Meeting! New Year Sugoroku Tournament,크리에메이트 대집합! 정월 주사위 대회: 본선
復刻・野クルと北の山と初キャンプ△,复刻・野活部与北山与初次露营△,"Re-Run: Outclub, the Northern Mountain and the First Camp",복각: 야클과 북쪽 산과 첫 캠프△
チョコレートパニック,巧克力慌乱,Chocolate Panic,초콜릿 패닉
エトワリア冒険譚　リゼ教官の秘密特訓,艾特瓦利亚冒险谈 理世教官的秘密特训,Etoilia Adventure Log: Instructor Rize’s Secret Training,에토와리아 모험담: 리제 교관의 비밀 특훈
エトワリア冒険譚　目覚める鋼鉄の巨人,艾特瓦利亚冒险谈 觉醒的钢铁巨人,Etoilia Adventure Log: Awakening of the Steel Giant,에토와리아 모험담: 눈뜬 강철의 거인
復刻・友達の友達は友達大作戦,复刻・朋友的朋友是朋友大作战,Re-Run: Operation: A Friend's Friend is Also a Friend,복각: 친구의 친구는 친구 대작전
三者三葉ぶらり旅,三者三叶假日旅行,Sansha Sanyou's Casual Trip,삼자삼엽 훌쩍 여행
棺担ぎとＧＡと黄金のクロモン像,担棺与 GA 与黄金小黑怪像,"Hitsugi Katsugi, GA and the Golden Kuromon Statue",관지기와 GA와 황금의 쿠로몬상
甘兎庵の野望,甘兔庵的野心,Ama Usa An's Ambition,아마우사안의 야망
黄金の記憶,黄金的记忆,Golden Memoria,황금의 기억
開催！　エトワリア大運動会,开始！艾特瓦利亚大运动会,Opening! Etoilia Sports Festival!,개최! 에토와리아 대운동회
さすらいの賞金稼ぎ リン＆カレン,流浪的赏金猎人 凛与可怜,Wandering Bounty Hunters Rin & Karen,유랑하는 상금벌이 린 & 카렌
復刻・創刊！コミックエトワリア,复刻・创刊！漫画艾特瓦利亚,Re-run: First Issue! Comic Etoilia,복각: 창간! 코믹 에토와리아
復刻・謎の島と絆の試練,复刻・谜之岛与羁绊的试炼,Re-run: Mysterious Island and Trial of Bonds,복각: 수수께끼의 섬과 인연의 시련
ＮＥＷ ＥＭＯＴＩＯＮ！,NEW EMOTION!,NEW EMOTION!,NEW EMOTION!
エトワリア夏の一幕2019,艾特瓦利亚夏日一幕 2019,Etoilia Summer One-Shots 2019,에토와리아 여름의 한 장면 2019
リュウグウ・アドベンチャー,龙宫大冒险,Ryuuguu Adventure,류구 어드벤처
リュウグウ・アドベンチャー　後日談,龙宫大冒险 后日谈,Ryuuguu Adventure: Later Talk,류구 어드벤처: 후일담
パイレーツオブエトワリア,艾特瓦利亚的海贼,Pirates of Etoilia,파이러츠 오브 에토와리아
パイレーツオブエトワリア　後日談,艾特瓦利亚的海贼 后日谈,Pirates of Etoilia: Later Talk,파이러츠 오브 에토와리아: 후일담
いせかいまぞくとごせん像,异世界魔族与先祖像,The Demon Girl in Another World with the Ancestue,이세계 마족과 조상
ソルト最大の変身,盐最努力的变身,Salt's Greatest Transformation,솔트 최대의 변신
はたらくチマメ隊,打工的小豆子队,Chimame Corps at Work,일하는 치마메 대
ランプの限界チャレンジ！,兰普的极限挑战,Lamp's Limit Challenge!,램프의 한계 챌린지!
トリックオアトリート大作戦,不给糖就捣蛋大作战,Operation: Trick or Treat,트릭 오어 트리트 대작전
ユタカの弟子入り志願,丰的拜师志愿,Yutaka's Disciple Aspiration,유타카의 제자 지원
強敵チャレンジクエストラッシュ,强敌挑战关卡冲刺,Boss Challenge Quest Rush,강적 챌린지 퀘스트 러시
エトワリア&エクスプローラー,艾特瓦利亚与探索家,Etoilia & Explorateur,에토와리아 & 익스플로러
ハングリークリスマス,饥饿圣诞,Hungry Christmas,헝그리 크리스마스
年末年始特番！　お正月だよエトワリア,年末年初特别节目！正月来临艾特瓦利亚,"New Year's Special Programme! It's a New Year, Etoilia","연말연시 특별 방송! 정월이야, 에토와리아"
新春！　育成応援キャンペーン,新春！养成应援活动,New Year! Nurturing Support Campaign,신춘! 육성 응원 캠페인
闇チョコシンジケートを追え！,追击巧克力黑商！,Pursue the Darkness Chocolate Syndicate!,어둠 초코 신디케이트를 쫓아라!
勇者のグルメ～エトワリア食紀行～,勇者美食传～艾特瓦利亚美食游记～,Hero's Gourmet ~Etoilia's Food Journal~,용사의 구르메 ~에토와리아 식기행~
暗雲！　ヒナ祭り,暗云！女儿节,Dark Clouds! Hinamatsuri Festival,암운! 히나마츠리
奇跡が生まれる星,奇迹诞生之星,The Star Where Miracles are Born,기적이 생겨나는 별
このフェンネルにお任せを！,交给茴香吧！,Please Leave this to Fennel!,이 페넬에게 맡기라고!
どきどきエトワリア学園,心跳艾特瓦利亚学园,Doki Doki Etoilia Campus,두근두근 에토와리아 학원
復刻・三者三葉ぶらり旅,复刻・三者三叶假日旅行,Re-Run: Sansha Sanyou's Casual Trip,복각: 삼자삼엽 훌쩍 여행
メイドは見た！　～金髪館怪人事件～,女仆目睹了一切！～金发馆怪人事件～,The Maid Witnessed! Flaky Incident in The Blonde Manor,메이드는 보았다! ~금발관 괴인사건~
お姉ちゃんズ11,姐姐们 11,Onee-chans 11,언니즈 11
大運動会と女神の聖杯,大运动会与女神的圣杯,The Great Sports Festival & The Goddess' Holy Cup,대운동회와 여신의 성배
エトワリア野球対決,艾特瓦利亚棒球对决,Etoilia Baseball Showdown,에토와리아 야구 대결
スロウテイマーズ,Slow Tamers,Slow Tamers,
七夕の約束,七夕之约,,
大騒動！エトワリア同人誌即売会,大骚动！艾特瓦利亚同人志即卖会,,
エトワリア夏の一幕2020,艾特瓦利亚夏之一幕2020,,
夏休み！宿題大作戦,暑假！作业大作战,,
夏休み企画アルティメットクイズ,暑假企划终极测验,Summer Holiday Ultimate Quiz,
バトルオブパイレーツ　-囚われのチアと水着海賊-,海贼之战 -被抓住的啦啦队与泳装海贼-,,
カルダモンのスティーレ武者修行 ,豆蔻的 Stile 武者修行,,
ラブラブトラベル大作戦,Love Love 旅行大作战,,
キセキの出会いと夢のパーティー,奇迹的相遇与梦之聚会,A Miracle Encounter and the Dream Party,
おちこぼれアイドルの異世界ＴＶ,满溢的偶像异世界TV,Dropout Idol's Another World TV,
