﻿ja,zh,en,ko
装備無しの両手剣,无装备的两手剑,Unequipped Hand,장비하지 않은 양손검
古びたつるぎ,古老之剑,Old Blade,낡은 검
レプリカソード,仿制之刃,Replica Sword,레플리카 소드
見習いのつるぎ,见习者之剑,Trainee's Blade,견습생의 검
ノーマルソード,无奇之刃,Normal Sword,노멀 소드
中級者のつるぎ,中级者之剑,Junior's Blade,중급자의 검
グレートソード,庞然之刃,Great Sword,그레이트 소드
上級者のつるぎ,上级者之剑,Senior's Blade,상급자의 검
マスターソード,大师之刃,Master Sword,마스터 소드
達人のつるぎ,达人之剑,Expert's Blade,달인의 검
スターソード,星之刃,Star Sword,스타 소드
黒いシャベル,黑铲,Black Shovel,검은 셔블
夏の相棒,夏日玩伴,Summer Partner,여름의 파트너
装備無しのクリスタル,无装备的水晶,Unequipped Crystal,장비하지 않은 크리스털
古びたオーブ,古老宝珠,Old Orb,낡은 오브
レプリカクリスタル,仿制水晶,Replica Crystal,레플리카 크리스털
見習いのオーブ,见习者宝珠,Trainee's Orb,견습생의 오브
ノーマルクリスタル,无奇水晶,Normal Crystal,노멀 크리스털
中級者のオーブ,中级者宝珠,Junior's Orb,중급자의 오브
グレートクリスタル,庞然水晶,Great Crystal,그레이트 크리스털
上級者のオーブ,上级者宝珠,Senior's Orb,상급자의 오브
マスタークリスタル,大师水晶,Master Crystal,마스터 크리스털
達人のオーブ,达人宝珠,Expert's Orb,달인의 오브
スタークリスタル,星之水晶,Star Crystal,스타 크리스털
装備無しの片手杖,无装备的单手杖,Unequipped Cane,장비하지 않은 한손 지팡이
古びた杖,古老魔杖,Old Cane,낡은 지팡이
レプリカロッド,仿制魔棒,Replica Rod,레플리카 로드
見習いの杖,见习者魔杖,Trainee's Cane,견습생의 지팡이
ノーマルロッド,无奇魔棒,Normal Rod,노멀 로드
中級者の杖,中级者魔杖,Junior's Cane,중급자의 지팡이
グレートロッド,庞然魔棒,Great Rod,그레이트 로드
上級者の杖,上级者魔杖,Senior's Cane,상급자의 지팡이
マスターロッド,大师魔棒,Master Rod,마스터 로드
達人の杖,达人魔杖,Expert's Cane,달인의 지팡이
スターロッド,星之魔棒,Star Rod,스타 로드
クレアのキーレプリカ,克蕾尔的钥匙仿制品,Claire's Key Replica,클레어의 열쇠 레플리카
装備無しの盾槍,无装备的盾枪,Unequipped Buckler,장비하지 않은 창과 방패
古びたたて,古老之盾,Old Buckler,낡은 방패
レプリカシールド,仿制盾牌,Replica Shield,레플리카 실드
見習いのたて,见习者之盾,Trainee's Buckler,견습생의 방패
ノーマルシールド,无奇盾牌,Normal Shield,노멀 실드
中級者のたて,中级者之盾,Junior's Buckler,중급생의 방패
グレートシールド,庞然盾牌,Great Shield,그레이트 실드
上級者のたて,上级者之盾,Senior's Buckler,상급자의 방패
マスターシールド,大师盾牌,Master Shield,마스터 실드
達人のたて,达人之盾,Expert's Buckler,달인의 방패
スターシールド,星之盾牌,Star Shield,스타 실드
謎めくシールド,谜之盾牌,Mystery Shield,수수께끼의 실드
装備無しの薬瓶,无装备的药瓶,Unequipped Flask,장비하지 않은 약병
古びた試験管,古老试管,Old Test Tube,낡은 시험관
レプリカフラスコ,仿制烧瓶,Replica Flask,레플리카 플라스크
見習いの試験管,见习者试管,Trainee's Test Tube,견습생의 시험관
ノーマルフラスコ,无奇烧瓶,Normal Flask,노멀 플라스크
中級者の試験管,中级者试管,Junior's Test Tube,중급자의 시험관
グレートフラスコ,庞然烧瓶,Great Flask,그레이트 플라스크
上級者の試験管,上级者试管,Senior's Test Tube,상급자의 시험관
マスターフラスコ,大师烧瓶,Master Flask,마스터 플라스크
達人の試験管,达人试管,Expert's Test Tube,달인의 시험관
スターフラスコ,星之烧瓶,Star Flask,스타 플라스크
清夏のびんづめ,清夏之瓶,Summer Bottle,푸른 여름의 병
オーナメント,首饰,Ornament,
ガントレット,护手,Gauntlet,
ギガふとんたたき,巨大被褥拍,Giga Carpet Beater,
クリスタル,水晶,Crystal,
シールド,盾牌,Shield,
シャベル,铲,Shovel,
スパチュラ,搅拌铲,Spatula,
スピアー,长枪,Spear,
ソード,刃,Sword,
ナイフ,刀,Knife,
なんとかの杖,的那啥啥的杖,Whatever Cane,
にくきゅう玉,肉球,Meat Ball,
ねこハンマー,猫锤,Cat Hammer,
バット,球棒,Bat,
パフェ,芭菲,Parfait,
パペット,人偶,Puppet,
ハンマー,锤,Hammer,
フラスコ,烧瓶,Flask,
フロート,雪顶饮料,Float,
ボール,球,Ball,
ポンポン,啦啦球,Pom Pom,
ランス,长矛,Lance,
ロッド,魔棒,Rod,
★5ゆの専用ロッド,,,
★5涼風 青葉専用ガントレット,,,
★5千矢専用シールド,,,
★5丈槍 由紀専用ロッド,,,
★5恵飛須沢 胡桃専用シャベル,,,
★5九条 カレン専用ソード,,,
★5本田 珠輝専用クリスタル,,,
★5平沢 唯専用ソード,,,
★5野々原 ゆずこ専用ねこハンマー,,,
★5桜ノ宮 苺香専用クリスタル,,,
★5トオル専用バット,,,
★5ココア専用ソード,,,
★5チノ専用クリスタル,,,
★5高山 春香専用ロッド,,,
★5折部 やすな専用ランス,,,
★5メリー・ナイトメア専用ハンマー,,,
★5はじめ【クリスマス】専用ソード,,,
★5アリス【クリスマス】専用パペット,,,
★5千矢【クリスマス】専用ロッド,,,
★5ユー子【クリスマス】専用スピアー,,,
★5志摩 リン専用クリスタル,,,
★5一之瀬 花名専用ロッド,,,
★5関谷 なる専用ロッド,,,
★5萌田 薫子専用ロッド,,,
★5アルシーヴデフォルトぶき,,,
★5アルシーヴ汎用ぶき,,,
★5リゼ専用スピアー,,,
★5シュガーデフォルトぶき,,,
★5シュガー汎用ぶき,,,
★5中野 梓専用クリスタル,,,
★5花小泉 杏専用シールド,,,
★5大空 遥専用シールド,,,
★5千夜専用ロッド,,,
★5シャロ専用フラスコ,,,
★5椎奈【バレンタイン】専用ソード,,,
★5ジンジャーデフォルトぶき,,,
★5ジンジャー汎用ぶき,,,
★5宮子専用ソード,,,
★5櫟井 唯専用ランス,,,
★5鳩谷 こはね専用ポンポン,,,
★5夏帆【水着】専用ハンマー,,,
★5綾【水着】専用シールド,,,
★5コウ【水着】専用クリスタル,,,
★5ゆき【水着】専用クリスタル,,,
★5セサミデフォルトぶき,,,
★5セサミ汎用ぶき,,,
★5ゆずこ【水着】専用シールド,,,
★5しずく【水着】専用ソード,,,
★5紺【水着】専用クリスタル,,,
★5なでしこ【水着】専用シールド,,,
★5山口 如月専用ロッド,,,
★5西川 葉子専用クリスタル,,,
★5綾【バレンタイン】専用スパチュラ,,,
★5クロ専用フラスコ,,,
★5ソルトデフォルトぶき,,,
★5ソルト汎用ぶき,,,
★5マヤ専用ソード,,,
★5メグ専用ロッド,,,
★5ソーニャ専用ソード,,,
★5るん専用ロッド,,,
★5若狭 悠里専用ナイフ,,,
★5日向 縁専用にくきゅう玉,,,
★5きらら【マンガ版】デフォルトぶき,,,
★5きらら【マンガ版】汎用ぶき,,,
★5ゆの【クリスマス】専用オーナメント,,,
★5メリー【クリスマス】専用シールド,,,
★5ひふみ【クリスマス】専用シャベル,,,
★5夏帆【お正月】専用ガントレット,,,
★5やすな【お正月】専用ロッド,,,
★5各務原 なでしこ専用ハンマー,,,
★5犬山 あおい専用シールド,,,
★5澪【バレンタイン】専用ソード,,,
★5小梅【バレンタイン】専用パフェ,,,
★5吉田 優子専用なんとかの杖,,,
★5恋塚 小夢専用クリスタル,,,
★5ゆん【ひな祭り】専用シールド,,,
★5勇魚【ひな祭り】専用クリスタル,,,
★5フェンネルデフォルトぶき,,,
★5フェンネル汎用ぶき,,,
★5藤川 歌夜専用フラスコ,,,
★5百地 たまて専用ギガふとんたたき,,,
★5大宮 忍専用ロッド,,,
★5棗 ノノ専用ロッド,,,
★5園田 優専用ハンマー,,,
★5滝本 ひふみ専用クリスタル,,,
★5雲雀丘 瑠璃専用クリスタル,,,
★5比嘉 かなた専用クリスタル,,,
★5町子 リョウ専用フラスコ,,,
★5木ノ幡 みら専用フラスコ,,,
★5あおい【水着】専用フロート,,,
★5チノ【水着】専用シールド,,,
★5かおす【水着】専用シールド,,,
★5ランプ【水着】専用クリスタル,,,
★5千石 冠専用フラスコ,,,
★5ハナ【水着】専用フラスコ,,,
★5ねね【水着】専用ソード,,,
★5苺香【水着】専用フラスコ,,,
★5くるみ【水着】専用シールド,,,
★5唯【水着】専用ロッド,,,
★5虎徹【クリスマス】専用クリスタル,,,
★5武田 詠深専用ボール,,,
★5カルダモンデフォルトぶき,,,
★5カルダモン汎用ぶき,,,
★5アリス（サンリオ）デフォルトぶき,,,
★5アリス（サンリオ）汎用ぶき,,,
★5優（サンリオ）デフォルトぶき,,,
★5優（サンリオ）汎用ぶき,,,
★5かむ（サンリオ）デフォルトぶき,,,
★5かむ（サンリオ）汎用ぶき,,,
★5はなこ（サンリオ）デフォルトぶき,,,
★5はなこ（サンリオ）汎用ぶき,,,
★5メリー（サンリオ）デフォルトぶき,,,
★5メリー（サンリオ）汎用ぶき,,,
★5薗部（サンリオ）デフォルトぶき,,,
★5薗部（サンリオ）汎用ぶき,,,
★5宮子【クリスマス】専用シールド,,,
★5星川 麻冬専用ロッド,,,
